^D:\RCA_R\DOCUMENTS\1 - PROYECTOS\MÁSTER INFORMÁTICA GRÁFICA\GRÁFICOS 3D\G3D\P4\P4GLSL\SCR\AUXILIAR.CPP
/c /I..\LIBS\INCLUDE /ZI /nologo /W3 /WX- /diagnostics:classic /Od /Oy- /D WIN32 /D _DEBUG /D _CONSOLE /D _MBCS /Gm /EHsc /RTC1 /MDd /GS /fp:precise /Zc:wchar_t /Zc:forScope /Zc:inline /Fo"DEBUG\\" /Fd"DEBUG\VC141.PDB" /Gd /TP /analyze- /FC D:\RCA_R\DOCUMENTS\1 - PROYECTOS\MÁSTER INFORMÁTICA GRÁFICA\GRÁFICOS 3D\G3D\P4\P4GLSL\SCR\AUXILIAR.CPP
^D:\RCA_R\DOCUMENTS\1 - PROYECTOS\MÁSTER INFORMÁTICA GRÁFICA\GRÁFICOS 3D\G3D\P4\P4GLSL\SCR\MAIN.CPP
/c /I..\LIBS\INCLUDE /ZI /nologo /W3 /WX- /diagnostics:classic /Od /Oy- /D WIN32 /D _DEBUG /D _CONSOLE /D _MBCS /Gm /EHsc /RTC1 /MDd /GS /fp:precise /Zc:wchar_t /Zc:forScope /Zc:inline /Fo"DEBUG\\" /Fd"DEBUG\VC141.PDB" /Gd /TP /analyze- /FC D:\RCA_R\DOCUMENTS\1 - PROYECTOS\MÁSTER INFORMÁTICA GRÁFICA\GRÁFICOS 3D\G3D\P4\P4GLSL\SCR\MAIN.CPP
